<?xml version="1.0" encoding="UTF-8"?>
<svg xmlns="http://www.w3.org/2000/svg" xmlns:xlink="http://www.w3.org/1999/xlink" viewBox="0 0 240 240" width="240px" height="240px">
<g id="surface13552531">
<path style=" stroke:none;fill-rule:nonzero;fill:rgb(100%,100%,100%);fill-opacity:1;" d="M 120 21 C 65.355469 21 21 65.355469 21 120 C 21 174.644531 65.355469 219 120 219 C 174.644531 219 219 174.644531 219 120 C 219 65.355469 174.644531 21 120 21 Z M 120 27 C 171.398438 27 213 68.601562 213 120 C 213 171.398438 171.398438 213 120 213 C 68.601562 213 27 171.398438 27 120 C 27 68.601562 68.601562 27 120 27 Z M 120 36 C 118.347656 36 117 37.347656 117 39 C 117 40.652344 118.347656 42 120 42 C 121.652344 42 123 40.652344 123 39 C 123 37.347656 121.652344 36 120 36 Z M 135.878906 37.546875 C 134.414062 37.511719 133.148438 38.53125 132.855469 39.972656 C 132.539062 41.589844 133.59375 43.171875 135.222656 43.5 C 136.839844 43.816406 138.421875 42.761719 138.75 41.144531 C 139.066406 39.515625 138.011719 37.933594 136.394531 37.605469 C 136.21875 37.582031 136.054688 37.558594 135.878906 37.546875 Z M 104.214844 37.558594 C 104.015625 37.558594 103.816406 37.570312 103.617188 37.605469 C 101.988281 37.933594 100.933594 39.515625 101.261719 41.144531 C 101.414062 41.917969 101.871094 42.609375 102.539062 43.054688 C 103.195312 43.488281 104.003906 43.652344 104.789062 43.5 C 106.417969 43.171875 107.472656 41.601562 107.144531 39.972656 C 106.863281 38.578125 105.644531 37.570312 104.214844 37.558594 Z M 89.027344 42.164062 C 88.628906 42.164062 88.230469 42.234375 87.855469 42.386719 C 86.320312 43.03125 85.59375 44.777344 86.238281 46.3125 C 86.871094 47.847656 88.617188 48.574219 90.152344 47.941406 C 91.6875 47.296875 92.414062 45.550781 91.78125 44.015625 C 91.3125 42.902344 90.234375 42.175781 89.027344 42.164062 Z M 151.066406 42.164062 C 149.824219 42.140625 148.699219 42.867188 148.21875 44.015625 C 147.585938 45.550781 148.3125 47.296875 149.847656 47.941406 C 151.382812 48.574219 153.128906 47.847656 153.761719 46.3125 C 154.40625 44.777344 153.679688 43.03125 152.144531 42.386719 C 151.804688 42.246094 151.429688 42.175781 151.066406 42.164062 Z M 75.035156 49.640625 C 74.425781 49.640625 73.828125 49.816406 73.324219 50.15625 C 71.953125 51.070312 71.578125 52.933594 72.503906 54.316406 C 73.417969 55.6875 75.28125 56.0625 76.664062 55.136719 C 78.046875 54.222656 78.410156 52.359375 77.496094 50.988281 C 76.945312 50.15625 76.019531 49.652344 75.035156 49.640625 Z M 165.046875 49.640625 C 164.027344 49.628906 163.066406 50.132812 162.503906 50.988281 C 161.578125 52.359375 161.953125 54.222656 163.324219 55.136719 C 164.707031 56.0625 166.570312 55.6875 167.484375 54.316406 C 167.929688 53.660156 168.09375 52.839844 167.941406 52.066406 C 167.789062 51.28125 167.332031 50.589844 166.664062 50.15625 C 166.183594 49.828125 165.632812 49.652344 165.046875 49.640625 Z M 62.765625 59.71875 C 61.957031 59.71875 61.171875 60.035156 60.609375 60.609375 C 59.4375 61.769531 59.4375 63.679688 60.609375 64.839844 C 61.769531 66.011719 63.679688 66.011719 64.839844 64.839844 C 66.011719 63.679688 66.011719 61.769531 64.839844 60.609375 C 64.289062 60.046875 63.550781 59.730469 62.765625 59.71875 Z M 177.316406 59.71875 C 176.507812 59.71875 175.722656 60.035156 175.160156 60.609375 C 173.988281 61.769531 173.988281 63.679688 175.160156 64.839844 C 176.320312 66.011719 178.230469 66.011719 179.390625 64.839844 C 180.5625 63.679688 180.5625 61.769531 179.390625 60.609375 C 178.839844 60.046875 178.101562 59.730469 177.316406 59.71875 Z M 187.382812 72 C 186.773438 71.988281 186.1875 72.164062 185.683594 72.503906 C 184.3125 73.417969 183.9375 75.28125 184.863281 76.652344 C 185.777344 78.035156 187.640625 78.410156 189.011719 77.484375 C 190.394531 76.558594 190.769531 74.707031 189.84375 73.324219 C 189.292969 72.503906 188.367188 72 187.382812 72 Z M 52.699219 72 C 51.679688 71.976562 50.71875 72.480469 50.15625 73.324219 C 49.242188 74.707031 49.605469 76.570312 50.988281 77.484375 C 52.371094 78.410156 54.222656 78.035156 55.148438 76.664062 C 56.0625 75.28125 55.699219 73.417969 54.316406 72.503906 C 53.835938 72.1875 53.285156 72.011719 52.699219 72 Z M 108 72 L 108 108 L 72 108 L 72 132 L 108 132 L 108 168 L 132 168 L 132 132 L 168 132 L 168 108 L 132 108 L 132 72 Z M 114 78 L 126 78 L 126 114 L 162 114 L 162 126 L 126 126 L 126 162 L 114 162 L 114 126 L 78 126 L 78 114 L 114 114 Z M 194.859375 86.003906 C 194.460938 85.992188 194.0625 86.074219 193.6875 86.226562 C 192.152344 86.859375 191.425781 88.617188 192.058594 90.140625 C 192.703125 91.675781 194.449219 92.402344 195.984375 91.769531 C 197.519531 91.136719 198.246094 89.378906 197.613281 87.84375 C 197.144531 86.742188 196.066406 86.003906 194.859375 86.003906 Z M 45.234375 86.003906 C 43.992188 85.980469 42.867188 86.707031 42.398438 87.855469 C 41.765625 89.390625 42.492188 91.136719 44.015625 91.78125 C 45.550781 92.414062 47.308594 91.6875 47.941406 90.152344 C 48.574219 88.617188 47.847656 86.871094 46.3125 86.238281 C 45.972656 86.085938 45.609375 86.015625 45.234375 86.003906 Z M 199.453125 101.203125 C 199.253906 101.191406 199.054688 101.214844 198.855469 101.25 C 197.238281 101.578125 196.183594 103.160156 196.5 104.777344 C 196.828125 106.40625 198.410156 107.460938 200.027344 107.144531 C 201.65625 106.816406 202.710938 105.234375 202.394531 103.605469 C 202.113281 102.210938 200.882812 101.203125 199.453125 101.203125 Z M 40.640625 101.203125 C 39.175781 101.167969 37.910156 102.175781 37.617188 103.605469 C 37.464844 104.390625 37.617188 105.210938 38.0625 105.867188 C 38.507812 106.535156 39.199219 106.992188 39.984375 107.144531 C 40.757812 107.296875 41.566406 107.132812 42.234375 106.699219 C 42.890625 106.253906 43.347656 105.5625 43.5 104.777344 C 43.828125 103.160156 42.773438 101.578125 41.15625 101.25 C 40.980469 101.226562 40.816406 101.203125 40.640625 101.203125 Z M 39 117 C 37.347656 117 36 118.347656 36 120 C 36 121.652344 37.347656 123 39 123 C 40.652344 123 42 121.652344 42 120 C 42 118.347656 40.652344 117 39 117 Z M 201 117 C 199.347656 117 198 118.347656 198 120 C 198 121.652344 199.347656 123 201 123 C 202.652344 123 204 121.652344 204 120 C 204 118.347656 202.652344 117 201 117 Z M 40.570312 132.796875 C 40.371094 132.796875 40.171875 132.820312 39.972656 132.855469 C 38.34375 133.183594 37.289062 134.765625 37.617188 136.394531 C 37.945312 138.011719 39.515625 139.066406 41.144531 138.75 C 42.773438 138.421875 43.828125 136.839844 43.5 135.222656 C 43.21875 133.816406 42 132.808594 40.570312 132.796875 Z M 199.523438 132.796875 C 198.058594 132.761719 196.792969 133.78125 196.5 135.222656 C 196.183594 136.839844 197.238281 138.421875 198.855469 138.75 C 200.484375 139.066406 202.066406 138.011719 202.394531 136.394531 C 202.710938 134.765625 201.65625 133.183594 200.027344 132.855469 C 199.863281 132.832031 199.699219 132.808594 199.523438 132.796875 Z M 194.90625 147.984375 C 193.664062 147.960938 192.539062 148.699219 192.058594 149.847656 C 191.425781 151.371094 192.152344 153.128906 193.6875 153.761719 C 195.222656 154.394531 196.96875 153.667969 197.613281 152.144531 C 198.246094 150.609375 197.519531 148.851562 195.984375 148.21875 C 195.644531 148.078125 195.269531 147.996094 194.90625 147.984375 Z M 45.1875 147.996094 C 44.789062 147.996094 44.390625 148.066406 44.015625 148.21875 C 43.289062 148.523438 42.703125 149.109375 42.398438 149.847656 C 42.09375 150.585938 42.09375 151.40625 42.386719 152.144531 C 43.03125 153.679688 44.777344 154.40625 46.3125 153.761719 C 47.050781 153.46875 47.636719 152.882812 47.941406 152.144531 C 48.246094 151.40625 48.246094 150.585938 47.941406 149.847656 C 47.484375 148.734375 46.394531 148.007812 45.1875 147.996094 Z M 187.40625 162 C 186.386719 161.976562 185.425781 162.480469 184.863281 163.324219 C 183.9375 164.707031 184.3125 166.558594 185.683594 167.484375 C 186.339844 167.929688 187.160156 168.09375 187.933594 167.929688 C 188.71875 167.777344 189.410156 167.320312 189.84375 166.652344 C 190.769531 165.28125 190.394531 163.417969 189.011719 162.503906 C 188.542969 162.175781 187.980469 162 187.40625 162 Z M 52.6875 162 C 52.078125 161.988281 51.492188 162.164062 50.988281 162.503906 C 49.617188 163.429688 49.242188 165.28125 50.15625 166.664062 C 51.082031 168.035156 52.945312 168.410156 54.328125 167.484375 C 55.699219 166.570312 56.074219 164.707031 55.148438 163.324219 C 54.597656 162.503906 53.671875 162.011719 52.6875 162 Z M 62.765625 174.28125 C 61.957031 174.269531 61.171875 174.585938 60.609375 175.160156 C 59.4375 176.320312 59.4375 178.230469 60.609375 179.390625 C 61.769531 180.5625 63.679688 180.5625 64.839844 179.390625 C 66.011719 178.230469 66.011719 176.320312 64.839844 175.160156 C 64.289062 174.597656 63.550781 174.28125 62.765625 174.28125 Z M 177.316406 174.28125 C 176.507812 174.269531 175.722656 174.585938 175.160156 175.160156 C 173.988281 176.320312 173.988281 178.230469 175.160156 179.390625 C 176.320312 180.5625 178.230469 180.5625 179.390625 179.390625 C 180.5625 178.230469 180.5625 176.320312 179.390625 175.160156 C 178.839844 174.597656 178.101562 174.28125 177.316406 174.28125 Z M 75.058594 184.347656 C 74.039062 184.324219 73.078125 184.828125 72.515625 185.671875 C 71.589844 187.054688 71.964844 188.917969 73.347656 189.84375 C 74.71875 190.757812 76.582031 190.382812 77.496094 189.011719 C 78.421875 187.628906 78.046875 185.777344 76.675781 184.851562 C 76.195312 184.535156 75.632812 184.347656 75.058594 184.347656 Z M 165.035156 184.347656 C 164.425781 184.335938 163.839844 184.511719 163.335938 184.839844 C 162.667969 185.285156 162.210938 185.976562 162.058594 186.761719 C 161.90625 187.535156 162.070312 188.355469 162.515625 189.011719 C 163.429688 190.382812 165.292969 190.757812 166.675781 189.84375 C 168.046875 188.917969 168.421875 187.054688 167.496094 185.671875 C 166.957031 184.851562 166.03125 184.347656 165.035156 184.347656 Z M 89.074219 191.824219 C 87.832031 191.800781 86.707031 192.539062 86.238281 193.6875 C 85.605469 195.210938 86.332031 196.96875 87.855469 197.601562 C 89.390625 198.234375 91.148438 197.507812 91.78125 195.984375 C 92.414062 194.449219 91.6875 192.691406 90.152344 192.058594 C 89.8125 191.917969 89.449219 191.835938 89.074219 191.824219 Z M 151.019531 191.824219 C 150.621094 191.824219 150.222656 191.90625 149.859375 192.058594 C 149.121094 192.363281 148.535156 192.949219 148.230469 193.675781 C 147.925781 194.414062 147.925781 195.246094 148.21875 195.984375 C 148.863281 197.507812 150.609375 198.234375 152.144531 197.601562 C 152.882812 197.296875 153.46875 196.710938 153.773438 195.984375 C 154.078125 195.246094 154.078125 194.414062 153.773438 193.6875 C 153.316406 192.5625 152.226562 191.835938 151.019531 191.824219 Z M 104.285156 196.441406 C 102.820312 196.40625 101.542969 197.425781 101.261719 198.855469 C 100.933594 200.484375 101.988281 202.054688 103.617188 202.382812 C 105.246094 202.710938 106.816406 201.65625 107.144531 200.027344 C 107.472656 198.398438 106.417969 196.828125 104.789062 196.5 C 104.625 196.464844 104.449219 196.441406 104.285156 196.441406 Z M 135.808594 196.453125 C 135.609375 196.441406 135.410156 196.464844 135.222656 196.5 C 133.59375 196.828125 132.539062 198.398438 132.855469 200.027344 C 133.019531 200.8125 133.476562 201.492188 134.132812 201.9375 C 134.800781 202.382812 135.609375 202.546875 136.394531 202.394531 C 137.167969 202.230469 137.859375 201.773438 138.304688 201.117188 C 138.738281 200.449219 138.902344 199.640625 138.75 198.855469 C 138.46875 197.460938 137.238281 196.453125 135.808594 196.453125 Z M 120 198 C 118.347656 198 117 199.347656 117 201 C 117 202.652344 118.347656 204 120 204 C 121.652344 204 123 202.652344 123 201 C 123 199.347656 121.652344 198 120 198 Z M 120 198 "/>
</g>
</svg>
